{
  "name": "useClickOutside Hook",
  "description": "The `useClickOutside` hook is designed to detect and handle clicks outside of a specified element or set of elements. This is particularly useful for closing modal windows, dropdowns, and other components when a user interacts outside of them.",
  "features": [
    {
      "name": "Element Focus Management",
      "description": "Detects clicks outside of the specified element(s), which is essential for managing the focus and closing modal windows, dropdowns, and other components."
    },
    {
      "name": "Customizable Event Listening",
      "description": "Listens for specific events like `mousedown` and `touchstart` to determine outside clicks, with the option to customize the events."
    },
    {
      "name": "Dynamic Detection Control",
      "description": "Provides the ability to enable or disable the click outside detection dynamically, which offers flexible integration with various UI state requirements."
    },
    {
      "name": "Ref Exclusion",
      "description": "Allows for the exclusion of certain elements (by refs) from triggering the outside click logic, which is useful when certain elements within the component should not close it."
    },
    {
      "name": "Multiple Element Support",
      "description": "Can handle multiple elements as an array of refs, which is great for complex components that may consist of disjointed elements."
    },
    {
      "name": "Simple Integration",
      "description": "Easy to integrate into existing components with minimal changes required to the existing structure."
    }
  ],
  "installation": {
    "currentHook": [
      "npm install @custom-react-hooks/use-click-outside",
      "yarn add @custom-react-hooks/use-click-outside"
    ],
    "allHooks": ["npm install @custom-react-hooks/all", "yarn add @custom-react-hooks/all"]
  },
  "usage": {
    "code": "import React, { useState, useRef } from 'react';\nimport { useClickOutside } from '@custom-react-hooks/all';\n\nconst Modal = ({ onClose }) => {\n  const modalRef = useRef(null);\n\n  useClickOutside(modalRef, onClose);\n\n  return (\n    <div ref={modalRef}>\n      <p>Modal content goes here</p>\n      <button onClick={onClose}>Close Modal</button>\n    </div>\n  );\n};\n\nconst ClickOutsideComponent = () => {\n  const [isModalOpen, setModalOpen] = useState(false);\n\n  const openModal = () => setModalOpen(true);\n  const closeModal = () => setModalOpen(false);\n\n  return (\n    <div>\n      <button onClick={openModal}>Open Modal</button>\n      {isModalOpen && <Modal onClose={closeModal} />}\n    </div>\n  );\n};\n\nexport default ClickOutsideComponent;"
  },
  "apiReference": {
    "parameters": [
      {
        "name": "refs",
        "type": "RefObject | Array",
        "description": "A ref or an array of refs to the element(s) you want to detect outside clicks on."
      },
      {
        "name": "callback",
        "type": "Function",
        "description": "A callback function that will be called when a click outside the detected elements occurs."
      },
      {
        "name": "events",
        "type": "Array",
        "description": "An array of event names to listen for clicks. Defaults to ['mousedown', 'touchstart']."
      },
      {
        "name": "enableDetection",
        "type": "Boolean",
        "description": "A boolean to enable or disable click detection. Defaults to true."
      },
      {
        "name": "ignoreRefs",
        "type": "Array",
        "description": "An array of ref objects for elements that, when clicked, should not trigger the callback."
      }
    ],
    "returns": []
  },
  "useCases": [
    {
      "name": "Closing Modals or Popups",
      "description": "Automatically close a modal or popup when a user clicks outside of it."
    },
    {
      "name": "Dropdown Menus",
      "description": "Collapse dropdown menus when the user interacts with other parts of the application."
    },
    {
      "name": "Context Menus",
      "description": "Hide context menus or custom right-click menus when clicking elsewhere on the page."
    },
    {
      "name": "Form Validation or Submission",
      "description": "Trigger form validation or submission when clicking outside of a form area."
    },
    {
      "name": "Toggling UI Elements",
      "description": "Toggle the visibility of UI elements like sidebars or tooltips when clicking outside of them."
    }
  ],
  "notes": [
    "Ensure the elements referenced by `refs` are mounted when the hook is called.",
    "The hook must be called within a functional component body or another custom hook."
  ],
  "contributing": "Feel free to contribute to the development of this hook by submitting issues or pull requests to the repository."
}
